found,cycles
1,18
1,18
1,18
1,24
1,12
1,24
1,12
1,24
1,18
1,12
1,18
1,24
1,18
1,24
1,12
1,18
1,24
1,18
1,12
1,12
1,12
1,12
1,12
1,12
1,12
1,12
1,12
1,12
1,24
1,12
1,18
1,12
1,12
1,12
1,18
1,12
1,12
1,12
1,18
1,12
1,18
1,12
1,12
1,12
1,18
1,18
1,24
1,18
1,18
1,12
1,18
1,12
1,12
1,30
1,12
1,12
1,12
1,18
1,18
1,24
1,18
1,18
1,24
1,12
1,18
1,12
1,12
1,12
1,18
1,24
1,30
1,18
1,12
1,12
1,18
1,18
1,12
1,12
1,24
1,18
1,12
1,12
1,18
1,12
1,18
1,18
1,18
1,18
1,12
1,18
1,12
1,30
1,24
1,24
1,24
1,12
1,24
1,18
1,12
1,18
1,12
1,24
1,12
1,30
1,12
1,6
1,12
1,12
1,12
1,12
1,12
1,12
1,24
1,18
1,12
1,30
1,24
1,18
1,18
1,18
1,18
1,18
1,12
1,18
1,12
1,12
1,18
1,12
1,12
1,24
1,12
1,6
1,12
1,12
1,12
1,18
1,12
1,12
1,24
1,18
1,24
1,12
1,12
1,12
1,12
1,12
1,18
1,24
1,12
1,30
1,12
1,12
1,18
1,12
1,18
1,12
1,18
1,12
1,12
1,18
1,12
1,24
1,18
1,24
1,18
1,12
1,18
1,12
1,30
1,24
1,24
1,24
1,24
1,12
1,12
1,18
1,12
1,12
1,12
1,12
1,18
1,12
1,18
1,18
1,18
1,12
1,12
1,18
1,24
1,12
1,12
1,12
1,18
1,18
1,12
1,12
1,12
1,18
1,18
1,12
1,12
1,18
1,18
1,18
1,12
1,18
1,18
1,18
1,18
1,18
1,12
1,12
1,18
1,12
1,12
1,18
1,24
1,12
1,12
1,12
1,12
1,18
1,12
1,18
1,18
1,18
1,18
1,24
1,24
1,12
1,12
1,12
1,24
1,18
1,12
1,12
1,24
1,12
1,12
1,12
1,18
1,24
1,12
1,12
1,30
1,12
1,18
1,12
1,18
1,18
1,12
1,12
1,12
1,12
1,24
1,6
1,12
1,18
1,18
1,12
1,12
1,12
1,18
1,12
1,18
1,24
1,18
1,12
1,12
1,12
1,18
1,12
1,12
1,12
1,12
1,12
1,18
1,12
1,18
1,12
1,18
1,12
1,12
1,18
1,12
1,18
1,18
1,18
1,12
1,12
1,12
1,12
1,18
1,18
1,12
1,18
1,12
1,12
1,12
1,12
1,18
1,12
1,12
1,12
1,24
1,12
1,18
1,24
1,12
1,12
1,18
1,6
1,18
1,18
1,18
1,24
1,12
1,24
1,12
1,12
1,12
1,12
1,12
1,12
1,12
1,12
1,12
1,18
1,18
1,18
1,24
1,12
1,18
1,12
1,12
1,18
1,12
1,18
1,18
1,12
1,12
1,18
1,18
1,12
1,12
1,12
1,12
1,18
1,12
1,24
1,18
1,18
1,12
1,18
1,18
1,18
1,18
1,18
1,12
1,12
1,18
1,12
1,12
1,12
1,18
1,12
1,12
1,18
1,18
1,12
1,12
1,18
1,12
1,18
1,18
1,18
1,24
1,12
1,24
1,12
1,12
1,30
1,18
1,18
1,18
1,30
1,18
1,12
1,12
1,24
1,12
1,18
1,30
1,18
1,12
1,12
1,12
1,12
1,12
1,18
1,24
1,24
1,24
1,12
1,12
1,12
1,24
1,12
1,12
1,24
1,18
1,12
1,12
1,18
1,12
1,12
1,18
1,18
1,12
1,18
1,12
1,18
1,18
1,12
1,18
1,24
1,12
1,30
1,12
1,12
1,12
1,18
1,12
1,18
1,12
1,18
1,12
1,12
1,18
1,12
1,18
1,18
1,12
1,18
1,12
1,18
1,18
1,18
1,24
1,18
1,12
1,18
1,18
1,12
1,12
1,12
1,12
1,12
1,12
1,18
1,30
1,18
1,24
1,12
1,18
1,24
1,12
1,12
1,18
1,12
1,18
1,18
1,24
1,18
1,18
1,12
1,12
1,12
1,12
1,12
1,18
1,18
1,12
1,18
1,18
1,18
1,24
1,12
1,12
1,18
1,24
1,12
1,12
1,12
1,18
1,18
1,18
1,12
1,12
1,12
1,18
1,12
1,18
1,30
1,12
1,18
1,18
1,12
1,12
1,18
1,12
1,12
1,12
1,12
1,24
1,18
1,12
1,18
1,12
1,12
1,24
1,12
1,6
1,12
1,12
1,18
1,12
1,18
1,18
1,12
1,12
1,18
1,24
1,12
1,12
1,12
1,12
1,12
1,18
1,12
1,12
1,24
1,24
1,18
1,18
1,18
1,18
1,24
1,12
1,18
1,12
1,18
1,18
1,18
1,18
1,18
1,12
1,18
1,18
1,12
1,18
1,12
1,12
1,24
1,12
1,18
1,18
1,12
1,12
1,12
1,12
1,12
1,12
1,12
1,18
1,18
1,12
1,12
1,12
1,12
1,12
1,12
1,12
1,12
1,30
1,18
1,12
1,12
1,12
1,18
1,12
1,12
1,18
1,24
1,30
1,24
1,12
1,30
1,18
1,12
1,18
1,18
1,12
1,18
1,18
1,12
1,18
1,18
1,36
1,12
1,30
1,12
1,18
1,12
1,18
1,24
1,12
1,18
1,30
1,24
1,18
1,18
1,18
1,12
1,12
1,12
1,36
1,12
1,12
1,18
1,12
1,18
1,12
1,12
1,18
1,24
1,12
1,12
1,12
1,12
1,18
1,12
1,12
1,12
1,18
1,12
1,12
1,12
1,12
1,12
1,18
1,12
1,12
1,18
1,12
1,12
1,12
1,18
1,12
1,12
1,24
1,24
1,18
1,12
1,18
1,18
1,18
1,12
1,12
1,18
1,12
1,18
1,12
1,18
1,18
1,18
1,12
1,18
1,18
1,24
1,24
1,18
1,12
1,18
1,18
1,18
1,24
1,12
1,12
1,12
1,12
1,18
1,18
1,12
1,18
1,12
1,18
1,12
1,18
1,18
1,12
1,12
1,12
1,12
1,24
1,24
1,12
1,12
1,18
1,18
1,12
1,42
1,18
1,24
1,24
1,12
1,18
1,18
1,18
1,12
1,12
1,24
1,18
1,12
1,18
1,12
1,24
1,12
1,24
1,12
1,18
1,12
1,18
1,12
1,12
1,18
1,12
1,24
1,12
1,12
1,18
1,24
1,12
1,12
1,18
1,12
1,12
1,24
1,12
1,12
1,12
1,12
1,12
1,6
1,30
1,18
1,18
1,12
1,18
1,24
1,12
1,30
1,18
1,18
1,12
1,18
1,18
1,18
1,18
1,12
1,12
1,12
1,12
1,18
1,12
1,18
1,18
1,18
1,18
1,24
1,12
1,24
1,24
1,24
1,12
1,18
1,18
1,12
1,18
1,18
1,18
1,18
1,18
1,18
1,12
1,12
1,18
1,24
1,30
1,12
1,18
1,18
1,12
1,24
1,30
1,12
1,18
1,12
1,12
1,24
1,18
1,18
1,18
1,18
1,18
1,18
1,12
1,12
1,12
1,18
1,12
1,12
1,18
1,12
1,18
1,18
1,24
1,24
1,24
1,12
1,18
1,30
1,18
1,36
1,18
1,18
1,12
1,24
1,24
1,18
1,12
1,30
1,12
1,12
1,24
1,18
1,18
1,12
1,6
1,12
1,18
1,12
1,24
1,24
1,12
1,12
1,18
1,24
1,12
1,12
1,18
1,12
1,24
1,12
1,18
1,18
1,18
1,12
1,18
1,12
1,18
1,18
1,12
1,24
1,12
1,24
1,12
1,12
1,18
1,24
1,24
1,12
1,18
1,12
1,12
1,18
1,24
1,12
1,12
1,18
1,24
1,18
1,18
1,12
1,12
1,12
1,12
1,12
1,12
1,12
1,12
1,24
1,12
1,18
1,24
1,12
1,24
1,12
1,12
1,18
1,18
1,12
1,12
1,12
1,24
1,30
1,12
1,12
1,12
1,12
1,12
1,18
1,12
1,12
1,18
1,12
1,12
1,18
1,18
1,18
1,30
1,18
1,18
1,12
1,12
1,12
1,12
1,12
1,12
1,12
1,12
1,18
1,18
1,12
1,12
1,18
1,18
1,12
1,12
1,12
1,18
1,24
1,18
1,12
1,24
1,18
1,18
1,12
1,18
1,30
1,12
1,12
1,18
1,18
1,36
1,12
1,18
1,12
1,12
1,18
1,12
1,12
1,12
1,18
1,18
1,12
1,12
1,12
1,36
1,12
1,18
1,18
1,12
1,18
1,18
1,6
1,18
1,18
1,12
1,18
1,18
1,30
1,12
1,12
1,12
1,30
1,12
1,18
1,18
1,18
