found,cycles
0,10
0,10
0,10
0,10
0,10
0,10
0,10
0,10
0,10
0,10
0,10
0,10
0,10
0,10
0,10
0,10
0,10
0,10
0,10
0,10
0,10
0,10
0,10
0,10
0,10
0,10
0,10
0,10
0,10
0,10
0,10
0,10
0,10
0,10
0,10
0,10
0,10
0,10
0,10
0,10
0,10
0,10
0,10
0,10
0,10
0,10
0,10
0,10
0,10
0,10
0,10
0,10
0,10
0,10
0,10
0,10
0,10
0,10
0,10
0,10
0,10
0,10
0,10
0,10
0,10
0,10
0,10
0,10
0,10
0,10
0,10
0,10
0,10
0,10
0,10
0,10
0,10
0,10
0,10
0,10
0,10
0,10
0,10
0,10
0,10
0,10
0,10
0,10
0,10
0,10
0,10
0,10
0,10
0,10
0,10
0,10
0,10
0,10
0,10
0,10
0,10
0,10
0,10
0,10
0,10
0,10
0,10
0,10
0,10
1,6
0,10
0,10
0,10
0,10
0,10
0,10
0,10
0,10
0,10
0,10
0,10
0,10
0,10
0,10
0,10
0,10
0,10
0,10
0,10
0,10
0,10
0,10
0,10
0,10
0,10
0,10
1,10
0,10
0,10
0,10
0,10
0,10
0,10
0,10
0,10
0,10
0,10
0,10
0,10
0,10
0,10
0,10
0,10
0,10
0,10
0,10
0,10
0,10
0,10
0,10
0,10
0,10
0,10
0,10
0,10
0,10
0,10
0,10
0,10
0,10
0,10
0,10
0,10
0,10
0,10
0,10
0,10
0,10
0,10
0,10
0,10
0,10
0,10
0,10
0,10
0,10
0,10
0,10
0,10
0,10
0,10
0,10
0,10
0,10
0,10
0,10
0,10
0,10
0,10
0,10
0,10
1,10
0,10
1,10
0,10
0,10
0,10
0,10
0,10
0,10
0,10
0,10
0,10
0,10
0,10
0,10
0,10
0,10
0,10
0,10
0,10
0,10
0,10
0,10
0,10
0,10
1,6
0,10
0,10
0,10
0,10
0,10
0,10
0,10
0,10
0,10
0,10
0,10
0,10
0,10
0,10
0,10
0,10
0,10
0,10
0,10
0,10
0,10
0,10
0,10
0,10
0,10
0,10
0,10
0,10
0,10
0,10
0,10
0,10
0,10
0,10
0,10
0,10
0,10
0,10
0,10
0,10
0,10
0,10
0,10
0,10
0,10
0,10
0,10
0,10
0,10
0,10
0,10
0,10
0,10
0,10
0,10
0,10
0,10
0,10
0,10
0,10
0,10
0,10
0,10
0,10
0,10
0,10
0,10
0,10
0,10
0,10
0,10
0,10
0,10
0,10
0,10
0,10
0,10
0,10
0,10
0,10
0,10
0,10
0,10
0,10
0,10
0,10
0,10
0,10
0,10
0,10
0,10
0,10
0,10
0,10
0,10
0,10
0,10
0,10
0,10
0,10
0,10
0,10
0,10
0,10
0,10
0,10
0,10
0,10
0,10
0,10
0,10
0,10
0,10
0,10
0,10
0,10
0,10
0,10
0,10
0,10
0,10
0,10
1,6
0,10
0,10
0,10
0,10
0,10
0,10
0,10
0,10
0,10
0,10
0,10
0,10
0,10
0,10
0,10
0,10
0,10
0,10
0,10
0,10
0,10
0,10
0,10
0,10
0,10
0,10
0,10
0,10
0,10
0,10
0,10
0,10
0,10
0,10
0,10
0,10
0,10
0,10
0,10
0,10
0,10
0,10
0,10
0,10
0,10
0,10
0,10
0,10
0,10
0,10
0,10
0,10
0,10
0,10
0,10
0,10
0,10
0,10
0,10
0,10
0,10
0,10
0,10
0,10
0,10
0,10
0,10
0,10
0,10
0,10
0,10
0,10
1,6
0,10
0,10
0,10
0,10
0,10
0,10
0,10
0,10
0,10
0,10
0,10
0,10
0,10
0,10
0,10
0,10
0,10
0,10
0,10
0,10
0,10
0,10
0,10
0,10
0,10
0,10
0,10
0,10
0,10
0,10
0,10
0,10
0,10
0,10
0,10
0,10
0,10
0,10
0,10
0,10
0,10
0,10
0,10
0,10
0,10
0,10
0,10
0,10
0,10
0,10
0,10
0,10
0,10
0,10
0,10
0,10
0,10
0,10
0,10
0,10
0,10
0,10
0,10
0,10
0,10
0,10
0,10
0,10
0,10
0,10
0,10
0,10
0,10
0,10
0,10
0,10
0,10
0,10
0,10
0,10
0,10
0,10
0,10
0,10
0,10
0,10
0,10
1,6
0,10
0,10
0,10
0,10
0,10
0,10
0,10
0,10
0,10
0,10
0,10
0,10
0,10
0,10
0,10
0,10
0,10
0,10
0,10
0,10
0,10
0,10
0,10
0,10
0,10
0,10
0,10
0,10
0,10
0,10
0,10
0,10
0,10
0,10
0,10
0,10
0,10
0,10
0,10
0,10
0,10
0,10
0,10
0,10
0,10
0,10
0,10
0,10
0,10
0,10
0,10
0,10
0,10
0,10
0,10
0,10
0,10
0,10
0,10
0,10
0,10
0,10
0,10
0,10
0,10
0,10
0,10
0,10
0,10
0,10
0,10
0,10
0,10
0,10
0,10
0,10
0,10
0,10
0,10
0,10
0,10
0,10
0,10
0,10
0,10
0,10
0,10
0,10
0,10
0,10
0,10
0,10
0,10
0,10
0,10
0,10
0,10
0,10
0,10
0,10
0,10
0,10
0,10
0,10
0,10
0,10
0,10
0,10
0,10
0,10
0,10
0,10
0,10
0,10
0,10
0,10
0,10
1,6
0,10
0,10
0,10
0,10
0,10
0,10
0,10
0,10
0,10
0,10
0,10
0,10
0,10
0,10
0,10
0,10
0,10
0,10
0,10
0,10
0,10
0,10
0,10
0,10
0,10
0,10
0,10
0,10
0,10
0,10
0,10
0,10
0,10
0,10
0,10
0,10
0,10
0,10
0,10
0,10
0,10
0,10
0,10
0,10
0,10
0,10
0,10
0,10
0,10
0,10
0,10
0,10
0,10
0,10
0,10
0,10
0,10
0,10
0,10
0,10
0,10
0,10
0,10
0,10
0,10
0,10
0,10
0,10
0,10
0,10
0,10
0,10
0,10
0,10
0,10
0,10
0,10
0,10
0,10
0,10
0,10
0,10
0,10
0,10
0,10
0,10
0,10
0,10
0,10
0,10
0,10
0,10
0,10
0,10
0,10
0,10
0,10
0,10
0,10
0,10
0,10
0,10
0,10
0,10
0,10
0,10
0,10
0,10
0,10
0,10
1,6
0,10
0,10
0,10
0,10
0,10
0,10
0,10
0,10
0,10
0,10
0,10
1,6
0,10
0,10
0,10
0,10
0,10
0,10
0,10
0,10
0,10
0,10
0,10
0,10
0,10
0,10
0,10
0,10
0,10
0,10
0,10
0,10
0,10
0,10
0,10
0,10
0,10
0,10
0,10
0,10
0,10
0,10
0,10
0,10
0,10
0,10
0,10
0,10
0,10
0,10
0,10
0,10
0,10
0,10
0,10
0,10
0,10
0,10
0,10
0,10
0,10
0,10
0,10
0,10
0,10
0,10
0,10
0,10
0,10
0,10
0,10
0,10
0,10
0,10
0,10
0,10
0,10
0,10
0,10
0,10
0,10
0,10
0,10
0,10
0,10
0,10
0,10
0,10
0,10
0,10
0,10
0,10
0,10
0,10
0,10
0,10
0,10
0,10
0,10
0,10
0,10
0,10
0,10
0,10
0,10
0,10
0,10
0,10
0,10
0,10
0,10
0,10
0,10
0,10
0,10
1,6
0,10
0,10
0,10
0,10
0,10
0,10
0,10
0,10
0,10
0,10
0,10
0,10
0,10
0,10
0,10
0,10
0,10
0,10
0,10
0,10
0,10
0,10
0,10
0,10
0,10
0,10
0,10
0,10
0,10
0,10
0,10
0,10
0,10
0,10
0,10
0,10
0,10
0,10
0,10
0,10
0,10
0,10
0,10
0,10
0,10
0,10
0,10
0,10
0,10
0,10
0,10
0,10
0,10
0,10
0,10
0,10
0,10
0,10
0,10
0,10
0,10
0,10
0,10
0,10
0,10
0,10
0,10
0,10
0,10
0,10
0,10
0,10
0,10
0,10
0,10
0,10
0,10
0,10
0,10
0,10
0,10
0,10
0,10
0,10
0,10
0,10
0,10
0,10
0,10
0,10
0,10
0,10
0,10
0,10
0,10
0,10
0,10
0,10
0,10
0,10
0,10
0,10
0,10
0,10
0,10
0,10
0,10
0,10
0,10
0,10
0,10
0,10
0,10
0,10
0,10
0,10
0,10
0,10
0,10
0,10
0,10
0,10
0,10
0,10
0,10
0,10
0,10
0,10
0,10
0,10
0,10
0,10
0,10
0,10
0,10
0,10
0,10
0,10
0,10
0,10
0,10
0,10
0,10
0,10
