found,cycles
0,10
0,10
0,10
0,10
0,10
0,10
0,10
0,10
0,10
0,10
0,10
0,10
0,10
0,10
0,10
0,10
0,10
0,10
0,10
0,10
0,10
0,10
0,10
0,10
0,10
0,10
0,10
0,10
0,10
0,10
0,10
0,10
0,10
0,10
0,10
0,10
0,10
0,10
0,10
0,10
0,10
0,10
0,10
0,10
0,10
0,10
0,10
0,10
0,10
0,10
0,10
0,10
0,10
0,10
0,10
0,10
0,10
0,10
0,10
0,10
0,10
0,10
0,10
0,10
0,10
0,10
0,10
0,10
0,10
0,10
0,10
0,10
0,10
0,10
0,10
0,10
0,10
0,10
0,10
0,10
0,10
0,10
0,10
0,10
0,10
0,10
0,10
0,10
0,10
0,10
0,10
0,10
0,10
0,10
0,10
0,10
0,10
0,10
0,10
0,10
0,10
0,10
0,10
0,10
0,10
0,10
0,10
0,10
0,10
0,10
0,10
0,10
0,10
0,10
0,10
0,10
0,10
0,10
0,10
0,10
0,10
0,10
0,10
0,10
0,10
0,10
0,10
0,10
0,10
0,10
0,10
0,10
0,10
0,10
0,10
0,10
0,10
0,10
0,10
0,10
0,10
0,10
0,10
0,10
0,10
0,10
0,10
0,10
0,10
0,10
0,10
0,10
0,10
0,10
0,10
0,10
0,10
0,10
0,10
0,10
0,10
0,10
0,10
0,10
0,10
0,10
0,10
0,10
0,10
0,10
0,10
0,10
0,10
0,10
0,10
0,10
0,10
0,10
0,10
0,10
0,10
0,10
0,10
0,10
0,10
0,10
0,10
0,10
0,10
0,10
0,10
0,10
0,10
0,10
0,10
0,10
0,10
0,10
0,10
0,10
0,10
0,10
0,10
0,10
0,10
0,10
0,10
0,10
0,10
0,10
0,10
0,10
0,10
0,10
0,10
0,10
0,10
0,10
0,10
0,10
0,10
0,10
0,10
0,10
0,10
0,10
0,10
0,10
0,10
0,10
0,10
0,10
0,10
0,10
0,10
0,10
0,10
0,10
0,10
0,10
0,10
0,10
0,10
0,10
0,10
0,10
0,10
0,10
0,10
0,10
0,10
0,10
0,10
0,10
0,10
0,10
0,10
0,10
0,10
0,10
0,10
0,10
0,10
0,10
0,10
0,10
0,10
0,10
0,10
0,10
0,10
0,10
0,10
0,10
0,10
0,10
0,10
0,10
0,10
0,10
0,10
0,10
0,10
0,10
0,10
0,10
0,10
0,10
0,10
0,10
0,10
0,10
0,10
0,10
0,10
0,10
0,10
0,10
0,10
0,10
0,10
0,10
0,10
0,10
0,10
0,10
1,1
0,10
0,10
0,10
0,10
0,10
0,10
0,10
1,6
0,10
0,10
0,10
0,10
0,10
0,10
0,10
0,10
0,10
0,10
0,10
0,10
0,10
0,10
0,10
0,10
0,10
0,10
0,10
0,10
0,10
0,10
0,10
0,10
0,10
0,10
0,10
0,10
0,10
0,10
0,10
0,10
0,10
0,10
0,10
1,7
0,10
0,10
0,10
0,10
0,10
0,10
0,10
0,10
0,10
0,10
0,10
0,10
0,10
0,10
0,10
0,10
0,10
0,10
0,10
0,10
0,10
0,10
0,10
0,10
0,10
0,10
1,5
0,10
0,10
0,10
0,10
0,10
0,10
0,10
0,10
0,10
0,10
0,10
1,8
0,10
0,10
0,10
0,10
0,10
0,10
0,10
0,10
0,10
0,10
0,10
0,10
0,10
0,10
0,10
0,10
0,10
0,10
0,10
0,10
0,10
0,10
0,10
0,10
0,10
0,10
0,10
0,10
0,10
0,10
0,10
0,10
0,10
0,10
0,10
0,10
0,10
0,10
0,10
0,10
0,10
0,10
0,10
0,10
0,10
0,10
0,10
0,10
0,10
0,10
0,10
0,10
0,10
0,10
0,10
0,10
0,10
0,10
0,10
0,10
0,10
0,10
0,10
0,10
0,10
0,10
0,10
0,10
0,10
0,10
0,10
0,10
0,10
0,10
0,10
0,10
0,10
0,10
0,10
0,10
0,10
0,10
0,10
0,10
0,10
0,10
0,10
0,10
0,10
0,10
0,10
0,10
0,10
0,10
0,10
0,10
0,10
0,10
0,10
0,10
0,10
0,10
0,10
0,10
0,10
0,10
0,10
0,10
0,10
0,10
0,10
0,10
0,10
0,10
0,10
0,10
0,10
1,2
0,10
0,10
0,10
0,10
0,10
0,10
0,10
0,10
0,10
0,10
0,10
0,10
0,10
0,10
0,10
0,10
0,10
0,10
0,10
0,10
0,10
0,10
0,10
0,10
0,10
0,10
0,10
0,10
0,10
0,10
0,10
0,10
0,10
0,10
0,10
0,10
0,10
0,10
0,10
0,10
0,10
0,10
0,10
0,10
0,10
0,10
0,10
0,10
0,10
0,10
0,10
0,10
0,10
0,10
0,10
0,10
0,10
0,10
0,10
0,10
0,10
0,10
0,10
0,10
0,10
0,10
0,10
0,10
0,10
0,10
0,10
0,10
0,10
0,10
0,10
0,10
0,10
0,10
0,10
0,10
0,10
0,10
0,10
0,10
0,10
0,10
0,10
0,10
0,10
0,10
0,10
0,10
0,10
0,10
0,10
0,10
0,10
0,10
0,10
0,10
0,10
0,10
0,10
0,10
0,10
0,10
0,10
0,10
0,10
0,10
0,10
0,10
0,10
0,10
0,10
0,10
0,10
0,10
0,10
0,10
0,10
0,10
0,10
0,10
0,10
0,10
0,10
0,10
0,10
0,10
0,10
0,10
0,10
0,10
0,10
0,10
0,10
0,10
0,10
0,10
0,10
0,10
0,10
0,10
0,10
0,10
0,10
0,10
0,10
0,10
0,10
0,10
0,10
0,10
0,10
0,10
0,10
0,10
0,10
0,10
0,10
0,10
0,10
0,10
0,10
0,10
0,10
0,10
0,10
0,10
0,10
0,10
0,10
0,10
0,10
0,10
0,10
0,10
0,10
0,10
0,10
0,10
0,10
0,10
0,10
0,10
0,10
0,10
0,10
0,10
0,10
0,10
0,10
0,10
0,10
0,10
0,10
0,10
0,10
0,10
0,10
0,10
0,10
0,10
0,10
0,10
0,10
0,10
0,10
0,10
0,10
0,10
0,10
0,10
0,10
0,10
0,10
0,10
0,10
0,10
0,10
0,10
0,10
0,10
0,10
0,10
0,10
0,10
0,10
0,10
0,10
0,10
0,10
0,10
0,10
0,10
0,10
0,10
0,10
0,10
0,10
0,10
0,10
0,10
0,10
0,10
0,10
0,10
0,10
0,10
0,10
0,10
0,10
0,10
0,10
0,10
0,10
0,10
0,10
0,10
0,10
0,10
0,10
0,10
0,10
0,10
0,10
0,10
0,10
0,10
0,10
0,10
0,10
0,10
0,10
0,10
0,10
0,10
0,10
0,10
0,10
0,10
0,10
0,10
0,10
0,10
0,10
0,10
0,10
0,10
0,10
0,10
0,10
0,10
0,10
0,10
0,10
0,10
0,10
0,10
0,10
0,10
0,10
0,10
0,10
0,10
0,10
0,10
0,10
0,10
0,10
0,10
0,10
0,10
0,10
0,10
0,10
0,10
0,10
0,10
0,10
0,10
0,10
0,10
0,10
0,10
0,10
0,10
0,10
0,10
0,10
0,10
0,10
0,10
0,10
0,10
0,10
0,10
0,10
0,10
0,10
0,10
0,10
0,10
0,10
0,10
0,10
0,10
0,10
0,10
0,10
0,10
0,10
0,10
0,10
0,10
0,10
0,10
0,10
0,10
0,10
0,10
0,10
0,10
0,10
0,10
0,10
0,10
0,10
0,10
0,10
0,10
0,10
0,10
0,10
0,10
0,10
0,10
0,10
0,10
0,10
0,10
0,10
0,10
0,10
0,10
0,10
0,10
0,10
0,10
0,10
0,10
0,10
0,10
0,10
0,10
0,10
0,10
0,10
0,10
0,10
0,10
0,10
0,10
0,10
0,10
0,10
0,10
0,10
0,10
0,10
0,10
0,10
0,10
0,10
0,10
0,10
0,10
1,1
0,10
0,10
0,10
0,10
0,10
0,10
0,10
0,10
0,10
0,10
0,10
0,10
0,10
0,10
0,10
0,10
0,10
0,10
0,10
0,10
0,10
0,10
0,10
0,10
0,10
0,10
0,10
0,10
0,10
0,10
0,10
0,10
0,10
0,10
0,10
0,10
0,10
0,10
0,10
1,1
0,10
0,10
0,10
0,10
0,10
0,10
0,10
0,10
0,10
0,10
0,10
0,10
0,10
0,10
0,10
0,10
0,10
0,10
0,10
0,10
0,10
0,10
0,10
0,10
0,10
0,10
0,10
0,10
0,10
0,10
0,10
0,10
0,10
